Maryland Volleyball Points - Shane Connuck's Site
…
read_csv("https://raw.githubusercontent.com/dwillis/NCAAWomensVolleyballData/main/data/ncaa_womens_volleyball_matchstats_2022.csv")

## Rows: 6077 Columns: 36
## ── Column specification ────────────────────────────────────────────────────────
## Delimiter: ","
## chr   (3): team, opponent, home_away
## dbl  (31): team_score, opponent_score, s, kills, errors, total_attacks, hit_...
## lgl   (1): result
## date  (1): date
## 
## ℹ Use `spec()` to retrieve the full column specification for this data.
## ℹ Specify the column types or set `show_col_types = FALSE` to quiet this message.

## # A tibble: 6,077 × 36
##    date       team     oppon…¹ home_…² result team_…³ oppon…⁴     s kills errors
##    <date>     <chr>    <chr>   <chr>   <lgl>    <dbl>   <dbl> <dbl> <dbl>  <dbl>
##  1 2022-08-26 A&M-Cor… Nebras… Away    NA           0       3     3    20     22
##  2 2022-08-26 A&M-Cor… Pepper… Away    NA           0       3     3    36     21
##  3 2022-08-27 A&M-Cor… Tulsa   Away    NA           2       3     5    75     22
##  4 2022-08-30 A&M-Cor… UTRGV   Away    NA           2       3     5    78     24
##  5 2022-09-02 A&M-Cor… Sam Ho… Home    NA           0       3     3    41     22
##  6 2022-09-03 A&M-Cor… SMU     Home    NA           0       3     3    41     18
##  7 2022-09-03 A&M-Cor… Indiana Home    NA           0       3     3    25     17
##  8 2022-09-06 A&M-Cor… UTRGV   Home    NA           0       3     3    34     22
##  9 2022-09-09 A&M-Cor… Texas … Away    NA           0       3     3    33     20
## 10 2022-09-10 A&M-Cor… Rice    Away    NA           0       3     3    36     21
## # … with 6,067 more rows, 26 more variables: total_attacks <dbl>,
## #   hit_pct <dbl>, assists <dbl>, aces <dbl>, s_err <dbl>, digs <dbl>,
## #   r_err <dbl>, block_solos <dbl>, block_assists <dbl>, b_err <dbl>,
## #   pts <dbl>, bhe <dbl>, defensive_kills <dbl>, defensive_errors <dbl>,
## #   defensive_total_attacks <dbl>, defensive_hit_pct <dbl>,
## #   defensive_assists <dbl>, defensive_aces <dbl>, defensive_s_err <dbl>,
## #   defensive_digs <dbl>, defensive_r_err <dbl>, defensive_block_solos <dbl>, …
…
