First Pass Interceptions - Shane Connuck's Site
…
This means that since 2014, according to this data, there have been 7,201 pass plays, which include passing touchdowns, interceptions, receptions, incompletions and sacks. That’s a very high number.

first_plays_game %>% 
  group_by(play_type) %>% 
  filter(play_type == "Interception Return")

## # A tibble: 45 × 331
## # Groups:   play_type [1]
##     year  week id_play   game_id game_…¹ half_…² drive…³ pos_t…⁴ def_p…⁵ pos_t…⁶
##    <dbl> <int>   <dbl>     <int>   <dbl>   <dbl>   <dbl> <chr>   <chr>     <int>
##  1  2014     4 4.01e17 400548196       2       2       2 Colora… Hawai'i       0
##  2  2014     5 4.01e17 400548036       2       2       2 Old Do… Middle…       0
##  3  2014     8 4.01e17 400547931       2       2       2 Maryla… Iowa          0
##  4  2014     8 4.01e17 400547964       2       2       2 Purdue  Minnes…       0
##  5  2014    10 4.01e17 400547700       2       2       2 Cincin… Tulane        0
##  6  2014    11 4.01e17 400547737       2       2       2 Boston… Louisv…       0
##  7  2015     1 4.01e17 400603829       2       2       2 Louisv… Auburn        0
##  8  2015     1 4.01e17 400852728       2       2       2 NC Sta… Missis…       0
##  9  2015     2 4.01e17 400763499       2       2       2 Colora… Minnes…       0
## 10  2015     6 4.01e17 400787256       2       2       2 Fresno… Utah S…       0
## # … with 35 more rows, 321 more variables: def_pos_team_score <int>,
## #   half <dbl>, period <int>, clock.minutes <int>, clock.seconds <int>,
## #   play_type <chr>, play_text <chr>, down <dbl>, distance <dbl>,
## #   yards_to_goal <dbl>, yards_gained <dbl>, EPA <dbl>, ep_before <dbl>,
## #   ep_after <dbl>, wpa <dbl>, wp_before <dbl>, wp_after <dbl>,
## #   def_wp_before <dbl>, def_wp_after <dbl>, penalty_detail <chr>,
## #   yds_penalty <dbl>, penalty_1st_conv <lgl>, new_series <dbl>, …
…
There are Indiana and Maryland on page two! Wide range of games on this list … fellow power five schools among the likes of Notre Dame and Clemson, along with the Bethune-Cookmans and Gardner-Webbs of the world.

first_plays_game %>% 
  group_by(play_type) %>% 
  filter(play_type == "Interception Return") %>% 
  summarise(pos_team)

## `summarise()` has grouped output by 'play_type'. You can override using the
## `.groups` argument.

## # A tibble: 45 × 2
## # Groups:   play_type [1]
##    play_type           pos_team      
##    <chr>               <chr>         
##  1 Interception Return Colorado      
##  2 Interception Return Old Dominion  
##  3 Interception Return Maryland      
##  4 Interception Return Purdue        
##  5 Interception Return Cincinnati    
##  6 Interception Return Boston College
##  7 Interception Return Louisville    
##  8 Interception Return NC State      
##  9 Interception Return Colorado State
## 10 Interception Return Fresno State  
## # … with 35 more rows
…
