NFL Redzone Update - Shane's Sportsblog
…
nfl_plays <- load_pbp(
  seasons = most_recent_season(),
  file_type = getOption("nflreadr.prefer", default = "rds")
)

nfl_plays %>% 
  filter(yardline_100 < 20) %>% 
  filter(posteam == "MIA") 

## ── nflverse play by play data ──────────────────────────────────────────────────

## ℹ Data updated: 2022-11-02 05:08:35 EDT

## # A tibble: 92 × 372
##    play_id game_id old_g…¹ home_…² away_…³ seaso…⁴  week posteam poste…⁵ defteam
##      <dbl> <chr>   <chr>   <chr>   <chr>   <chr>   <int> <chr>   <chr>   <chr>  
##  1     499 2022_0… 202209… MIA     NE      REG         1 MIA     home    NE     
##  2     523 2022_0… 202209… MIA     NE      REG         1 MIA     home    NE     
##  3    1155 2022_0… 202209… MIA     NE      REG         1 MIA     home    NE     
##  4    1678 2022_0… 202209… MIA     NE      REG         1 MIA     home    NE     
##  5    3475 2022_0… 202209… MIA     NE      REG         1 MIA     home    NE     
##  6    3497 2022_0… 202209… MIA     NE      REG         1 MIA     home    NE     
##  7    3529 2022_0… 202209… MIA     NE      REG         1 MIA     home    NE     
##  8    3550 2022_0… 202209… MIA     NE      REG         1 MIA     home    NE     
##  9    1018 2022_0… 202209… BAL     MIA     REG         2 MIA     away    BAL    
## 10    1052 2022_0… 202209… BAL     MIA     REG         2 MIA     away    BAL    
## # … with 82 more rows, 362 more variables: side_of_field <chr>,
## #   yardline_100 <dbl>, game_date <chr>, quarter_seconds_remaining <dbl>,
## #   half_seconds_remaining <dbl>, game_seconds_remaining <dbl>,
## #   game_half <chr>, quarter_end <dbl>, drive <dbl>, sp <dbl>, qtr <dbl>,
## #   down <dbl>, goal_to_go <dbl>, time <chr>, yrdln <chr>, ydstogo <dbl>,
## #   ydsnet <dbl>, desc <chr>, play_type <chr>, yards_gained <dbl>,
## #   shotgun <dbl>, no_huddle <dbl>, qb_dropback <dbl>, qb_kneel <dbl>, …
…
